{
"autoplayBgm":false,"autoplayBgs":false,"battleback1Name":"","battleback2Name":"","bgm":{"name":"","pan":0,"pitch":100,"volume":90},"bgs":{"name":"","pan":0,"pitch":100,"volume":90},"disableDashing":false,"displayName":"Qilin Dungeon 004","encounterList":[],"encounterStep":30,"height":17,"note":"<Save Event Locations>","parallaxLoopX":false,"parallaxLoopY":false,"parallaxName":"","parallaxShow":false,"parallaxSx":0,"parallaxSy":0,"scrollType":0,"specifyBattleback":false,"tilesetId":4,"width":24,
"data":[0,0,0,0,0,0,0,0,0,0,0,0,0,0,0,0,0,0,0,0,0,0,0,0,0,0,0,0,0,0,0,0,0,0,0,0,0,0,0,0,0,0,0,0,0,0,0,0,0,0,0,3331,3329,3319,3329,3329,3341,0,0,0,0,0,0,0,0,0,0,0,0,0,0,0,0,0,3339,3323,0,3328,0,0,0,0,0,3331,3329,3329,3318,3332,0,3330,3317,3329,3318,3332,0,0,0,0,0,3337,3329,3327,3329,3333,0,0,0,3328,0,0,3336,3334,0,3312,3320,0,3336,3334,0,0,0,0,0,0,0,0,0,3315,3341,0,3330,3299,3332,0,0,0,0,3312,3320,0,0,0,0,0,0,0,0,3331,3329,3319,3329,3335,0,0,3312,3296,3320,0,3330,3317,3329,3305,3320,0,3330,3332,0,0,0,0,3339,3323,0,3328,0,0,0,0,3312,3296,3320,0,3312,3320,0,3336,3326,3329,3325,3334,0,0,0,0,0,3337,3329,3327,3329,3329,3329,3329,3325,3324,3310,3329,3305,3320,0,0,0,0,0,0,0,0,0,0,0,0,0,0,0,0,0,0,0,0,3328,0,3312,3320,0,3330,3317,3329,3318,3332,0,0,0,0,0,0,0,0,3330,3316,3316,3316,3317,3329,3335,0,3336,3326,3329,3305,3320,0,3336,3334,0,0,0,0,0,0,0,0,3312,3296,3296,3296,3320,0,0,0,0,0,0,3312,3320,0,0,0,0,0,0,0,0,0,0,0,3312,3296,3296,3296,3320,0,0,0,0,0,0,3312,3320,0,3330,3332,0,0,0,0,0,0,0,0,3312,3296,3296,3296,3320,0,0,0,0,0,0,3336,3326,3329,3325,3334,0,0,0,0,0,0,0,0,3336,3324,3324,3324,3334,0,0,0,0,0,0,0,0,0,0,0,0,0,0,0,0,0,0,0,0,0,0,0,0,0,0,0,0,0,0,0,0,0,0,0,0,0,0,0,0,0,0,0,0,0,0,0,0,0,0,0,0,0,0,0,0,0,0,0,0,0,3392,3392,3392,3392,3392,3392,3392,3392,3392,3392,3392,3392,3392,3392,3392,3392,3392,3392,3392,3392,3392,3392,3392,3392,3392,3392,3396,3420,3420,3420,3420,3420,3420,3400,3392,3392,3392,3392,3392,3392,3392,3392,3392,3392,3392,3392,3392,3392,3392,3396,3430,0,0,0,0,0,0,3408,3396,3420,3420,3420,3420,3420,3404,3420,3420,3420,3420,3420,3400,3392,3392,3416,0,0,3438,0,3435,3425,3414,3393,3416,0,0,0,0,0,3424,0,0,0,0,0,3408,3392,3392,3394,3428,0,0,0,0,0,3432,3404,3430,0,3435,3429,0,0,3424,0,0,3434,0,0,3408,3392,3392,3392,3398,3425,3425,3425,3437,0,0,3424,0,0,0,3411,3425,3425,3431,0,0,3411,3425,3425,3401,3392,3392,3396,3430,0,0,0,0,0,3426,3418,0,0,0,3424,0,0,0,0,0,3436,0,0,3408,3392,3392,3416,0,0,3438,0,3435,3425,3421,3430,0,0,0,3436,0,0,3434,0,0,0,0,0,3408,3392,3392,3394,3428,0,0,0,0,0,0,0,0,0,0,0,0,0,3411,3425,3425,3425,3425,3425,3401,3392,3392,3392,3394,3412,3412,3413,3425,3425,3425,3425,3425,3437,0,3434,0,0,3436,0,0,0,0,0,3408,3392,3392,3392,3392,3392,3392,3416,0,0,0,0,0,0,0,3424,0,0,0,0,0,3434,0,0,3408,3392,3392,3392,3392,3392,3392,3416,0,0,0,0,0,3426,3412,3395,3412,3412,3428,0,0,3411,3425,3425,3401,3392,3392,3392,3392,3392,3392,3416,0,0,0,0,0,3408,3392,3392,3392,3392,3416,0,0,3436,0,0,3408,3392,3392,3392,3392,3392,3392,3416,0,0,0,0,0,3408,3392,3392,3392,3392,3416,0,0,0,0,0,3408,3392,3392,3392,3392,3392,3392,3416,0,0,0,0,0,3408,3392,3392,3392,3392,3394,3412,3412,3412,3412,3412,3393,3392,3392,3392,3392,3392,3392,3394,3412,3412,3412,3412,3412,3393,3392,3392,3392,3392,3392,3392,3392,3392,3392,3392,3392,3392,3392,3392,3392,3392,3392,3392,3392,3392,3392,3392,3392,3392,3392,3392,3392,3392,3392,3392,3392,3392,3392,3392,3392,3392,0,0,0,0,0,0,0,0,0,0,0,0,0,0,0,0,0,0,0,0,0,0,0,0,0,0,0,0,0,0,0,0,0,0,0,0,0,0,0,0,0,0,0,0,0,0,0,0,0,0,0,0,0,0,0,0,0,0,0,0,0,0,0,0,0,0,0,0,0,0,0,0,0,0,0,0,0,0,0,0,0,0,0,0,0,0,0,0,0,0,0,0,0,0,0,0,0,0,0,0,0,0,0,0,0,0,0,0,0,0,0,0,0,0,0,0,0,0,0,0,0,0,0,0,0,0,0,0,0,0,0,0,0,0,0,0,0,0,0,0,0,0,0,0,0,0,0,0,0,0,0,0,0,0,0,0,0,0,0,0,0,0,0,0,0,0,0,0,0,0,0,0,0,0,0,0,0,0,0,0,0,0,0,0,0,0,0,0,0,0,0,0,0,0,0,0,0,0,0,0,0,0,0,0,0,0,0,0,0,0,0,0,0,0,0,0,0,0,0,0,0,0,0,0,0,0,0,0,0,0,0,0,0,0,0,0,0,0,0,0,0,0,0,0,0,0,0,0,0,0,0,0,0,0,0,0,0,0,0,0,0,0,0,0,0,0,0,0,0,0,0,0,0,0,0,0,0,0,0,0,0,0,0,0,0,0,0,0,0,0,0,0,0,0,0,0,0,0,0,0,0,0,0,0,0,0,0,0,0,0,0,0,0,0,0,0,0,0,0,0,0,0,0,0,0,0,0,0,0,0,0,0,0,0,0,0,0,0,0,0,0,0,0,0,0,0,0,0,0,0,0,0,0,0,0,0,0,0,0,0,0,0,0,0,0,0,0,0,0,0,0,0,0,0,0,0,0,0,0,0,0,0,0,0,0,0,0,0,0,0,0,0,0,0,0,0,0,0,0,0,0,0,0,0,0,0,0,0,0,0,0,0,0,0,0,0,0,0,0,0,0,0,0,0,0,0,0,0,0,0,0,0,0,0,0,0,0,0,0,0,0,0,0,0,0,0,0,0,0,0,0,0,0,0,0,0,0,0,0,0,0,0,0,0,0,0,0,0,0,0,0,0,0,0,0,0,0,0,0,0,0,0,0,0,0,0,0,0,0,0,0,0,0,0,0,0,0,0,0,0,0,0,0,0,0,0,0,0,0,0,0,0,0,0,0,0,0,0,0,0,0,0,0,0,0,0,0,0,0,0,0,0,0,0,0,0,0,0,0,0,0,0,0,0,0,0,0,0,0,0,0,0,0,0,0,0,0,0,0,0,0,0,0,0,0,0,0,0,0,0,0,0,0,0,0,0,0,0,0,0,0,0,0,0,0,0,0,0,0,0,0,0,0,0,0,0,0,0,0,0,0,0,0,0,0,0,0,0,0,0,0,0,0,0,0,0,0,0,0,0,0,0,0,0,0,0,0,0,0,0,0,0,0,0,0,0,0,0,0,0,0,0,0,0,0,0,0,0,0,0,0,0,0,0,0,0,0,0,0,0,0,0,0,0,0,0,0,0,0,0,0,0,0,0,0,0,0,0,0,0,0,0,0,0,0,0,0,0,0,0,0,0,0,0,0,0,0,0,0,0,0,0,0,0,0,0,0,0,0,0,0,0,0,0,0,0,0,0,0,0,0,0,0,0,0,0,0,0,0,0,0,0,0,0,0,0,0,0,0,0,0,0,0,0,0,0,0,0,0,0,0,0,0,0,0,0,0,0,0,0,0,0,0,0,0,0,0,0,0,0,0,0,0,0,0,0,0,0,0,0,0,0,0,0,0,0,0,0,0,0,0,0,0,0,0,0,0,0,0,0,0,0,0,0,0,0,0,0,0,0,0,0,0,0,0,0,0,0,0,0,0,0,0,0,0,0,0,0,0,0,0,0,0,0,0,0,0,0,0,0,0,0,0,0,0,0,0,0,0,0,0,0,0,0,0,0,0,0,0,0,0,0,0,0,0,0,0,0,0,0,0,0,0,0,0,0,0,0,0,0,0,0,0,0,0,0,0,0,0,0,0,0,0,0,0,0,0,0,0,0,0,0,0,0,0,0,0,0,0,0,0,0,0,0,0,0,0,0,0,0,0,0,0,0,0,0,0,0,0,0,0,0,0,0,0,0,0,0,0,0,0,0,0,0,0,0,0,0,0,0,0,0,0,0,0,0,0,0,0,0,0,0,0,0,0,0,0,0,0,0,0,0,0,0,0,0,0,0,0,0,0,0,0,0,0,0,0,0,0,0,0,0,0,0,0,0,0,0,0,0,0,0,0,0,0,0,0,0,0,0,0,0,0,0,0,0,0,0,0,0,0,0,0,0,0,0,0,0,0,0,0,0,0,0,0,0,0,0,0,0,0,0,0,0,0,0,0,0,0,0,0,0,0,0,0,0,0,0,0,0,0,0,0,0,0,0,0,0,0,0,0,0,0,0,0,0,0,0,0,0,0,0,0,0,0,0,0,0,0,0,0,0,0,0,0,0,0,0,0,0,0,0,0,0,0,0,0,0,0,0,0,0,0,0,0,0,0,0,0,0,0,0,0,0,0,0,0,0,0,0,0,0,0,0,0,0,0,0,0,0,0,0,0,0,0,0,0,0,0,0,0,0,0,0,0,0,0,0,0,0,0,0,0,0,0,0,0,0,0,0,0,0,0,0,0,0,0,0,0,0,0,0,0,0,0,0,0,0,0,0,0,0,0,0,0,0,0,0,0,0,0,0,0,0,0,0,0,0,0,0,0,0,0,0,0,0,0,0,0,0,0,0,0,0,0,0,0,0,0,0,0,0,0,0,0,0,0,0,0,0,0,0,0,0,0,0,0,0,0,0,0,0,0,0,0,0,0,0,0,0,0,0,0,0,0,0,0,0,0,0,0,0,0,0,0,0,0,0,0,0,0,0,0,0,0,0,0,0,0,0,0,0,0,0,0,0,0,0,0,0,0,0,0,0,0,0,0,0,0,0,0,0,0,0,0,0,0,0,0,0,0,0,0,0,0,0,0,0,0,0,0,0,0,0,0,0,0,0,0,0,0,0,0,0,0,0,0,0,0,0,0,0,0,0,0,0,0,0,0,0,0,0,0,0,0,0,0,0,0,0,0,0,0,0,0,0,0,0,0,0,0,0,0,0,0,0,0,0,0,0,0,0,0,0,0,0,0,0,0,0,0,0,0,0,0,0,0,0,0,0,0,0,0,0,0,0,0,0,0,0,0,0,0,0,0,0,0,0,0,0,0,0,0,0,0,0,0,0,0,0,0,0,0,0,0,0,0,0,0,0,0,0,0,0,0,0,0,0,0,0,0,0,0,0,0,0,0,0,0,0,0,0,0,0,0,0,0,0,0,0,0,0,0,0,0,0,0,0,0,0,0,0,0,0,0,0,0,0,0,0,0,0,0,0,0,0,0,0,0,0,0,0,0,0,0,0,0,0,0,0,0,0,0,0,0,0,0,0,0,0,0,0,0,0,0,0,0,0,0,0,0,0,0,0,0,0,0,0,0,0,0,0,0,0,0,0,0,0,0,0,0,0,0,0,0,0,0,0,0,0,0,0,0,0,0,0,0,0,0,0,0,0,0,0,0,0,0,0,0,0,0,0,0,0,0,0,0,0,0,0,0,0,0,0,0,0,0,0,0,0,0,0,0,0,0,0,0,0,0,0,0,0,0,0,0,0,0,0,0,0,0,0],
"events":[
null,
{"id":1,"name":"Qilin Dungeon 003","note":"Qilin Dungeon 003","pages":[{"conditions":{"actorId":1,"actorValid":false,"itemId":1,"itemValid":false,"selfSwitchCh":"A","selfSwitchValid":false,"switch1Id":1,"switch1Valid":false,"switch2Id":1,"switch2Valid":false,"variableId":1,"variableValid":false,"variableValue":0},"directionFix":true,"image":{"tileId":0,"characterName":"!Door2","direction":8,"pattern":1,"characterIndex":1},"list":[{"code":250,"indent":0,"parameters":[{"name":"Up4","volume":90,"pitch":100,"pan":0}]},{"code":201,"indent":0,"parameters":[0,42,9,2,2,0]},{"code":0,"indent":0,"parameters":[]}],"moveFrequency":3,"moveRoute":{"list":[{"code":0,"parameters":[]}],"repeat":true,"skippable":false,"wait":false},"moveSpeed":3,"moveType":0,"priorityType":0,"stepAnime":true,"through":false,"trigger":1,"walkAnime":true}],"x":11,"y":6}
]
}