{
"autoplayBgm":false,"autoplayBgs":false,"battleback1Name":"IceCave","battleback2Name":"IceCave","bgm":{"name":"","pan":0,"pitch":100,"volume":90},"bgs":{"name":"","pan":0,"pitch":100,"volume":90},"disableDashing":false,"displayName":"Xuanwu Dungeon Final","encounterList":[],"encounterStep":30,"height":13,"note":"","parallaxLoopX":false,"parallaxLoopY":false,"parallaxName":"","parallaxShow":false,"parallaxSx":0,"parallaxSy":0,"scrollType":0,"specifyBattleback":true,"tilesetId":4,"width":17,
"data":[7520,7520,7520,7520,7520,7520,7520,7520,7520,7520,7520,7520,7520,7520,7520,7520,7520,7520,7524,7548,7548,7548,7548,7548,7548,7548,7548,7548,7548,7548,7548,7548,7528,7520,7520,7544,7906,7906,7906,7906,7906,7906,7906,7906,7906,7906,7906,7906,7906,7536,7520,7520,7544,7912,7912,7912,7912,7912,7912,7912,7912,7912,7912,7912,7912,7912,7536,7520,7520,7544,2754,2740,2756,4014,2762,4002,3988,4004,2762,4014,2754,2740,2756,7536,7520,7520,7544,2736,2720,2726,2753,2747,3984,3968,3992,2739,2753,2729,2720,2744,7536,7520,7520,7544,2736,2720,2744,4014,2752,3984,3968,3992,2752,4014,2736,2720,2744,7536,7520,7520,7544,2736,2720,2726,2753,2747,3984,3968,3992,2739,2753,2729,2720,2744,7536,7520,7520,7544,2736,2720,2744,4014,2752,3984,3968,3992,2752,4014,2736,2720,2744,7536,7520,7520,7544,2736,2720,2726,2753,2747,3984,3968,3992,2739,2753,2729,2720,2744,7536,7520,7520,7544,2760,2748,2758,4014,2764,4008,3980,4006,2764,4014,2760,2748,2758,7536,7520,7520,7522,7540,7540,7540,7540,7540,7556,4000,7554,7540,7540,7540,7540,7540,7521,7520,7520,7520,7520,7520,7520,7520,7520,7544,4000,7536,7520,7520,7520,7520,7520,7520,7520,0,0,0,0,0,0,0,0,0,0,0,0,0,0,0,0,0,0,0,0,0,0,0,0,0,0,0,0,0,0,0,0,0,0,0,0,0,0,0,0,0,0,0,0,0,0,0,0,0,0,0,0,0,0,0,0,0,0,0,0,0,0,0,0,0,0,0,0,0,0,0,0,0,0,0,0,0,0,0,0,0,0,0,0,0,0,0,0,0,0,0,0,0,0,0,0,0,0,0,0,0,0,0,0,0,0,0,0,0,0,0,0,0,0,0,0,0,0,0,0,0,0,0,0,0,0,0,0,0,0,0,0,0,0,0,0,0,0,0,0,0,0,0,0,0,0,0,0,0,0,0,0,0,0,0,0,0,0,0,0,0,0,0,0,0,0,0,0,0,0,0,0,0,0,0,0,0,0,0,0,0,0,0,0,0,0,0,0,0,0,0,0,0,0,0,0,0,0,0,0,0,0,0,0,0,0,0,0,0,0,0,0,0,0,0,0,0,0,0,0,0,0,0,0,0,0,0,0,0,0,0,0,0,0,0,0,0,0,0,0,0,0,0,0,0,0,0,0,0,0,0,0,0,0,0,0,0,0,0,0,0,0,0,0,0,0,0,0,0,0,0,0,0,0,0,0,0,0,0,0,149,0,0,0,0,0,0,0,0,0,0,0,0,0,0,0,0,0,0,0,0,0,0,0,0,0,0,0,0,0,0,0,0,0,0,0,0,0,0,0,0,0,0,0,0,0,0,0,0,0,0,0,0,0,0,0,0,0,0,0,0,0,0,0,0,0,0,0,0,0,0,0,0,0,0,0,0,0,0,0,0,0,0,0,0,0,0,0,0,0,0,0,0,0,0,0,0,0,0,0,0,0,0,0,0,0,0,0,0,0,0,0,0,0,0,0,0,0,0,0,0,0,0,0,0,0,0,0,0,0,0,0,0,0,0,0,0,0,0,0,0,0,0,0,0,0,0,0,0,0,0,0,0,0,0,0,0,0,0,0,0,0,0,0,0,0,0,0,0,0,0,0,0,0,0,0,0,0,0,0,0,0,0,0,0,0,0,0,0,0,0,0,0,0,0,0,0,0,0,0,0,0,0,0,0,0,0,0,0,0,0,0,0,0,0,0,0,0,185,0,0,147,0,0,186,0,0,0,0,0,0,0,0,0,0,193,0,0,0,0,0,194,0,0,0,0,0,0,0,0,0,0,185,0,0,0,0,0,186,0,0,0,0,0,0,0,0,0,0,193,0,336,337,338,0,194,0,0,0,0,0,0,0,0,0,0,185,0,344,345,346,0,186,0,0,0,0,0,0,0,0,0,0,193,0,352,353,354,0,194,0,0,0,0,0,0,0,0,0,0,185,0,0,0,0,0,186,0,0,0,0,0,0,0,0,0,0,193,0,0,0,0,0,194,0,0,0,0,0,0,0,0,0,0,0,0,0,0,0,0,0,0,0,0,0,0,0,0,0,0,0,0,0,0,0,0,0,0,0,0,0,0,0,0,0,0,0,0,0,0,0,0,0,0,0,0,0,0,0,0,0,0,0,0,0,0,0,0,0,0,0,0,0,0,0,0,0,0,0,0,0,0,0,0,0,0,0,0,0,0,0,0,0,0,0,0,0,0,0,0,0,0,0,0,0,0,0,0,0,0,0,0,0,5,0,0,0,0,0,0,0,0,0,0,0,0,0,0,0,0,5,0,0,0,0,0,0,0,0,0,0,0,0,0,0,0,0,5,0,0,0,0,0,0,0,0,0,0,0,0,0,0,0,0,5,0,0,0,0,0,0,0,0,0,0,0,0,0,0,0,0,5,0,0,0,0,0,0,0,0,0,0,0,0,0,0,0,0,5,0,0,0,0,0,0,0,0,0,0,0,0,0,0,0,0,5,0,0,0,0,0,0,0,0,0,0,0,0,0,0,0,0,0,0,0,0,0,0,0,0,0,0,0,0,0,0,0,0,0,0,0,0,0,0,0,5,0,0,0,0,0,0,0,0,0,0,0,0,0,0,0,0,0,0,0,0,0,0,0,0,0,0,0,0,0,0,0,0,0,0,0,0,0,0,0,0,0,0,0,0,0,0,0,0,0,0,0,0,0,0,0,0,0,0,0,0,0,0,0,0,0,0,0,0,0,0,0,0,0,0,0,0,0,0,0,0,0,0,0,0,0,0,0,0,0,0,0,0,0,0,0,0,0,0,0,0,0,0,0,0,0,0,0,0,0,0,0,0,0,0,0,0,0,0,0,0,0,0,0,0,0,0,0,0,0,0,0,0,0,0,0,0,0,0,0,0,0,0,0,0,0,0,0,0,0,0,0,0,0,0,0,0,0,0,0,0,0,0,0,0,0,0,0,0,0,0,0,0,0,0,0,0,0,0,0,0,0,0,0,0,0,0,0,0,0,0,0,0,0,0,0,0,0,0,0,0,0,0,0,0,0,0,0,0,0,0,0,0,0,0,0,0,0,0,0,0,0,0,0,0,0,0,0,0,0],
"events":[
null,
{"id":1,"name":"Xuanwu Dungeon","note":"Xuanwu Dungeon","pages":[{"conditions":{"actorId":1,"actorValid":false,"itemId":1,"itemValid":false,"selfSwitchCh":"A","selfSwitchValid":false,"switch1Id":1,"switch1Valid":false,"switch2Id":1,"switch2Valid":false,"variableId":1,"variableValid":false,"variableValue":0},"directionFix":true,"image":{"tileId":0,"characterName":"!Door2","direction":8,"pattern":1,"characterIndex":0},"list":[{"code":250,"indent":0,"parameters":[{"name":"Move1","pan":0,"pitch":100,"volume":90}]},{"code":201,"indent":0,"parameters":[0,3,8,5,2,0]},{"code":0,"indent":0,"parameters":[]}],"moveFrequency":3,"moveRoute":{"list":[{"code":0,"parameters":[]}],"repeat":true,"skippable":false,"wait":false},"moveSpeed":3,"moveType":0,"priorityType":0,"stepAnime":true,"through":false,"trigger":1,"walkAnime":true}],"x":8,"y":3},
{"id":2,"name":"Hydro Rune","note":"","pages":[{"conditions":{"actorId":1,"actorValid":false,"itemId":1,"itemValid":false,"selfSwitchCh":"A","selfSwitchValid":false,"switch1Id":1,"switch1Valid":false,"switch2Id":1,"switch2Valid":false,"variableId":1,"variableValid":false,"variableValue":0},"directionFix":true,"image":{"tileId":0,"characterName":"!Other1","direction":8,"pattern":1,"characterIndex":6},"list":[{"code":108,"indent":0,"parameters":["--"]},{"code":217,"indent":0,"parameters":[]},{"code":213,"indent":0,"parameters":[-1,2,true]},{"code":101,"indent":0,"parameters":["ABC_A_Delvin_Acelin",0,0,2]},{"code":401,"indent":0,"parameters":["\\c[1]\\n[1]\\c[0]"]},{"code":401,"indent":0,"parameters":["Hmm.. Is this HydroSpiritRune?"]},{"code":101,"indent":0,"parameters":["ABC_A_Sariel_Harper",0,0,2]},{"code":401,"indent":0,"parameters":["\\c[1]\\n[3]\\c[0]"]},{"code":401,"indent":0,"parameters":["That's right,"]},{"code":401,"indent":0,"parameters":["this thing is a HydroSpiritRune."]},{"code":101,"indent":0,"parameters":["ABC_A_Delvin_Acelin",0,0,2]},{"code":401,"indent":0,"parameters":["\\c[1]\\n[1]\\c[0]"]},{"code":401,"indent":0,"parameters":["OK, I'll take it right away."]},{"code":213,"indent":0,"parameters":[-1,1,true]},{"code":101,"indent":0,"parameters":["Monster",6,0,2]},{"code":401,"indent":0,"parameters":["What are you doing?!"]},{"code":401,"indent":0,"parameters":["You are disturbing my sleep!"]},{"code":301,"indent":0,"parameters":[0,8,false,false]},{"code":213,"indent":0,"parameters":[-1,8,true]},{"code":101,"indent":0,"parameters":["ABC_A_Delvin_Acelin",0,0,2]},{"code":401,"indent":0,"parameters":["\\c[1]\\n[1]\\c[0]"]},{"code":401,"indent":0,"parameters":["I feel something strange."]},{"code":101,"indent":0,"parameters":["ABC_A_Sariel_Harper",0,0,2]},{"code":401,"indent":0,"parameters":["\\c[1]\\n[3]\\c[0]"]},{"code":401,"indent":0,"parameters":["What's that?"]},{"code":101,"indent":0,"parameters":["ABC_A_Delvin_Acelin",0,0,2]},{"code":401,"indent":0,"parameters":["\\c[1]\\n[1]\\c[0]"]},{"code":401,"indent":0,"parameters":["I don't know, some kind of déjà vu."]},{"code":213,"indent":0,"parameters":[-1,8,true]},{"code":101,"indent":0,"parameters":["ABC_A_Eugene_Lionel",0,0,2]},{"code":401,"indent":0,"parameters":["\\c[1]\\n[2]\\c[0]"]},{"code":401,"indent":0,"parameters":["We'd better immediately find \\n[4] and"]},{"code":401,"indent":0,"parameters":["continue investigating this world."]},{"code":101,"indent":0,"parameters":["ABC_A_Delvin_Acelin",0,0,2]},{"code":401,"indent":0,"parameters":["\\c[1]\\n[1]\\c[0]"]},{"code":401,"indent":0,"parameters":["Ok."]},{"code":108,"indent":0,"parameters":["--"]},{"code":117,"indent":0,"parameters":[1]},{"code":108,"indent":0,"parameters":["--"]},{"code":123,"indent":0,"parameters":["A",0]},{"code":0,"indent":0,"parameters":[]}],"moveFrequency":3,"moveRoute":{"list":[{"code":0,"parameters":[]}],"repeat":true,"skippable":false,"wait":false},"moveSpeed":3,"moveType":0,"priorityType":1,"stepAnime":true,"through":false,"trigger":0,"walkAnime":true},{"conditions":{"actorId":1,"actorValid":false,"itemId":1,"itemValid":false,"selfSwitchCh":"A","selfSwitchValid":true,"switch1Id":1,"switch1Valid":false,"switch2Id":1,"switch2Valid":false,"variableId":1,"variableValid":false,"variableValue":0},"directionFix":false,"image":{"characterIndex":0,"characterName":"","direction":2,"pattern":0,"tileId":0},"list":[{"code":0,"indent":0,"parameters":[]}],"moveFrequency":3,"moveRoute":{"list":[{"code":0,"parameters":[]}],"repeat":true,"skippable":false,"wait":false},"moveSpeed":3,"moveType":0,"priorityType":0,"stepAnime":false,"through":false,"trigger":0,"walkAnime":true}],"x":8,"y":7}
]
}