{
"autoplayBgm":false,"autoplayBgs":false,"battleback1Name":"Wood2","battleback2Name":"Room1","bgm":{"name":"","pan":0,"pitch":100,"volume":90},"bgs":{"name":"","pan":0,"pitch":100,"volume":90},"disableDashing":false,"displayName":"House 2","encounterList":[],"encounterStep":30,"height":17,"note":"","parallaxLoopX":false,"parallaxLoopY":false,"parallaxName":"","parallaxShow":false,"parallaxSx":0,"parallaxSy":0,"scrollType":0,"specifyBattleback":false,"tilesetId":3,"width":21,
"data":[1536,1536,1536,1536,1536,1536,1536,1536,1536,1536,1536,1536,1536,1536,1536,1536,1536,1536,1536,1536,1536,1536,6834,6820,6820,6820,6821,6833,6833,6833,6833,6833,6833,6833,6823,6833,6833,6833,6833,6833,6837,1536,1536,6816,6800,6800,6800,6824,7186,7186,7186,7186,7186,7186,7186,6832,7186,7186,7186,7186,7186,6832,1536,1536,6816,6800,6800,6800,6824,7192,7192,7192,7192,7192,7192,7192,6832,7192,7192,7192,7192,7192,6832,1536,1536,6818,6828,6828,6828,6838,3234,3220,3220,3220,3220,3220,3236,6832,3234,3236,2946,2932,2948,6832,1536,1536,6832,7186,7186,7186,7190,3216,3200,3200,3200,3200,3200,3224,6844,3216,3224,2928,2912,2936,6832,1536,1536,6832,7192,7192,7192,7196,3216,3200,3200,3200,3200,3200,3224,7191,3216,3224,2952,2940,2950,6832,1536,1536,6832,3618,3604,3604,3620,3216,3200,3200,3200,3200,3200,3224,7197,3216,3202,3220,3220,3236,6832,1536,1536,6832,3624,3612,3612,3622,3216,3200,3200,3200,3200,3200,3206,3233,3229,3228,3228,3228,3238,6832,1536,1536,6832,3234,3220,3220,3220,3201,3200,3200,3200,3200,3200,3224,6835,6833,6833,6833,6833,6833,6827,1536,1536,6832,3216,3200,3200,3200,3200,3200,3200,3200,3200,3200,3224,6832,7186,7186,7186,7186,7186,6832,1536,1536,6832,3216,3200,3200,3200,3200,3200,3200,3200,3200,3200,3224,6844,7192,7192,7192,7192,7192,6832,1536,1536,6832,3240,3228,3208,3200,3200,3200,3200,3200,3200,3200,3224,7191,3234,3220,3220,3220,3236,6832,1536,1536,6817,6820,6836,3216,3200,3200,3200,3200,3200,3200,3200,3224,7197,3216,3200,3200,3200,3224,6832,1536,1536,6816,6800,6824,3240,3228,3228,3228,3228,3228,3212,3228,3230,3233,3229,3228,3228,3228,3238,6832,1536,1536,6840,6828,6830,6833,6833,6833,6833,6833,6837,3232,6835,6833,6833,6833,6833,6833,6833,6833,6839,1536,1536,1536,1536,1536,1536,1536,1536,1536,1536,6832,3232,6832,1536,1536,1536,1536,1536,1536,1536,1536,1536,0,0,0,0,0,0,0,0,0,0,0,0,0,0,0,0,0,0,0,0,0,0,0,0,0,0,0,0,0,0,0,0,0,0,0,0,0,0,0,0,0,0,0,0,0,0,0,0,0,0,0,0,0,0,0,0,0,0,0,0,0,0,0,0,0,0,0,0,0,0,0,0,0,0,0,0,0,0,0,0,0,0,0,0,0,0,0,0,0,0,0,0,0,0,0,0,0,0,0,0,0,0,0,0,0,0,0,0,0,0,0,0,0,0,0,0,0,0,0,0,0,0,0,0,0,0,0,0,0,0,0,0,0,0,3186,3172,3188,0,0,0,0,0,0,0,0,0,0,0,0,0,0,0,0,0,0,3168,3152,3176,0,0,0,0,0,0,0,0,0,0,0,0,0,0,0,0,0,0,3192,3180,3190,0,0,0,0,0,0,0,0,0,0,0,0,0,0,0,0,0,0,0,0,0,0,0,0,0,0,0,0,0,0,0,0,0,0,0,0,0,0,0,0,0,0,0,0,0,0,0,0,0,0,0,0,0,0,0,0,0,0,0,0,0,0,0,0,0,0,0,0,0,0,0,0,0,0,0,0,0,0,0,0,0,0,0,0,0,0,0,3187,3197,0,0,0,0,0,0,0,0,0,0,0,0,0,0,0,0,0,0,0,3196,0,0,0,0,0,0,0,0,0,0,0,0,0,0,0,0,0,0,0,0,0,0,0,0,0,0,0,0,0,0,0,0,0,0,0,0,0,0,0,0,0,0,0,0,0,0,0,0,0,0,0,0,0,0,0,0,0,0,0,0,0,0,0,0,0,0,0,0,0,0,0,0,0,0,0,0,0,0,0,0,0,0,0,0,0,0,0,0,0,0,0,0,0,0,0,0,0,0,0,0,0,0,0,0,0,0,0,0,0,0,0,0,0,0,0,0,0,0,0,0,0,0,0,0,0,0,0,0,32,0,0,0,0,0,0,0,0,0,0,0,0,0,0,0,0,0,0,0,0,40,0,0,0,0,0,0,0,0,0,0,0,0,0,0,0,0,0,0,0,0,0,0,0,0,0,0,0,0,0,0,0,0,0,0,0,0,0,0,0,0,0,0,0,0,0,0,0,0,0,0,0,0,0,0,0,0,0,0,0,0,0,0,0,0,0,0,0,0,0,0,0,0,0,0,0,0,0,0,0,0,0,0,0,0,0,0,0,0,0,0,0,0,0,0,0,0,0,0,0,0,0,0,0,0,0,0,0,0,0,0,0,0,0,0,0,0,0,0,0,0,0,0,0,0,0,0,0,0,0,0,0,0,0,0,0,0,0,0,0,0,0,0,0,0,0,0,0,0,0,0,0,0,0,0,0,0,0,0,0,0,0,0,0,0,0,0,0,0,0,0,0,0,0,0,0,0,0,0,0,0,0,0,0,0,0,0,0,0,0,0,0,0,0,0,0,0,0,0,0,0,0,0,0,0,0,0,0,0,0,0,0,0,0,0,0,0,0,0,0,0,0,0,0,0,0,0,0,0,0,0,0,0,0,0,0,0,0,0,0,0,0,0,0,0,0,0,0,0,0,0,0,0,0,0,0,0,0,0,0,0,0,0,0,0,0,0,0,0,0,0,0,0,0,0,0,0,0,0,0,0,0,0,0,0,0,0,0,0,0,0,0,0,0,0,0,0,0,0,0,0,0,0,0,0,0,0,0,0,0,0,0,0,0,0,0,0,0,0,0,0,0,0,0,0,0,32,0,131,0,32,0,0,166,167,0,33,0,0,0,0,0,0,0,0,0,69,40,0,139,0,40,0,0,69,50,0,41,0,0,0,0,0,0,0,0,0,77,0,0,0,0,0,0,0,77,58,0,81,82,0,0,0,0,38,0,16,0,0,0,0,104,0,0,0,0,0,0,0,89,90,0,0,0,0,46,121,24,0,64,0,0,0,0,0,0,0,104,96,0,0,0,0,0,0,0,112,113,114,115,72,104,0,0,0,104,0,0,0,0,0,0,0,0,0,0,0,0,0,0,0,0,0,0,0,0,0,0,0,0,0,0,0,0,0,0,0,0,249,0,0,0,0,0,0,104,0,0,0,0,0,0,0,0,0,0,0,0,0,200,0,0,0,0,0,0,0,0,0,0,0,0,0,0,0,0,0,0,0,0,0,0,0,0,0,0,0,0,0,0,0,0,0,0,69,0,0,0,0,0,0,0,0,0,0,0,0,0,0,0,0,0,0,341,328,77,0,80,0,0,0,0,0,0,0,0,0,0,0,0,0,0,0,0,315,104,0,0,88,0,0,0,0,0,0,209,209,0,0,0,0,0,0,0,0,0,0,0,0,0,0,0,0,0,0,0,0,0,0,0,0,0,0,0,0,0,0,0,0,0,0,0,0,0,0,0,0,0,0,0,0,0,0,0,0,0,0,0,0,0,0,0,0,0,0,0,0,0,0,0,0,0,0,0,0,0,0,0,0,0,0,0,0,0,0,0,0,0,0,0,0,0,0,0,0,0,0,0,0,0,0,0,0,0,0,0,0,0,0,0,0,0,0,0,0,0,0,0,0,0,0,0,0,0,0,0,5,0,0,0,0,0,0,0,0,0,0,0,0,0,0,0,0,0,0,0,0,5,0,0,0,0,0,0,5,5,0,0,0,0,0,0,5,0,5,0,0,0,5,0,0,0,0,0,0,5,0,0,0,0,0,0,0,5,0,0,0,0,0,5,0,0,0,0,0,0,5,0,0,0,0,0,0,0,5,0,0,0,0,0,5,0,0,5,0,0,0,0,5,0,0,0,0,0,0,5,0,0,0,0,0,5,0,0,5,0,0,0,0,0,0,0,0,0,0,0,0,0,0,0,0,0,5,0,0,5,0,0,0,0,0,0,0,0,0,0,0,0,0,0,0,0,0,5,0,0,5,0,0,0,0,0,0,0,0,0,0,0,0,0,0,0,0,0,5,0,0,5,0,0,0,0,0,0,0,0,0,0,0,0,0,0,0,0,0,5,0,0,5,0,0,0,0,0,0,0,0,0,0,0,5,0,0,5,0,0,5,0,0,0,0,0,0,0,0,0,0,0,0,0,0,5,0,0,0,0,0,5,0,0,0,0,5,0,0,0,0,0,0,0,0,0,0,0,0,0,0,0,5,0,0,0,0,0,0,0,0,0,0,0,0,0,0,0,0,0,0,0,0,5,0,0,0,0,0,0,0,0,0,0,5,0,5,0,0,0,0,0,0,0,0,0,0,0,0,0,0,0,0,0,0,0,0,0,0,0,0,0,0,0,0,0,0,0,0,0,0,0,0,0,0,0,0,0,0,0,0,0,0,0,0,0,0,0,0,0,0,0,0,0,0,0,0,0,0,0,0,0,0,0,0,0,0,0,0,0,0,0,0,0,0,0,0,0,0,0,0,0,0,0,0,0,0,0,0,0,0,0,0,0,0,0,0,0,0,0,0,0,0,0,0,0,0,0,0,0,0,0,0,0,0,0,0,0,0,0,0,0,0,0,0,0,0,0,0,0,0,0,0,0,0,0,0,0,0,0,0,0,0,0,0,0,0,0,0,0,0,0,0,0,0,0,0,0,0,0,0,0,0,0,0,0,0,0,0,0,0,0,0,0,0,0,0,0,0,0,0,0,0,0,0,0,0,0,0,0,0,0,0,0,0,0,0,0,0,0,0,0,0,0,0,0,0,0,0,0,0,0,0,0,0,0,0,0,0,0,0,0,0,0,0,0,0,0,0,0,0,0,0,0,0,0,0,0,0,0,0,0,0,0,0,0,0,0,0,0,0,0,0,0,0,0,0,0,0,0,0,0,0,0,0,0,0,0,0,0,0,0,0,0,0,0,0,0,0,0,0,0,0,0,0,0,0,0,0,0,0,0,0,0,0,0,0,0,0,0,0,0,0,0,0,0,0,0,0,0,0,0,0,0,0,0,0,0,0,0,0,0,0,0,0,0,0,0,0,0,0,0,0,0,0,0,0,0,0,0,0,0,0,0,0,0,0,0,0,0,0,0,0,0,0,0,0,0,0,0,0,0],
"events":[
null,
{"id":1,"name":"Flame","note":"","pages":[{"conditions":{"actorId":1,"actorValid":false,"itemId":1,"itemValid":false,"selfSwitchCh":"A","selfSwitchValid":false,"switch1Id":1,"switch1Valid":false,"switch2Id":1,"switch2Valid":false,"variableId":1,"variableValid":false,"variableValue":0},"directionFix":true,"image":{"tileId":0,"characterName":"!Flame","direction":4,"pattern":1,"characterIndex":1},"list":[{"code":0,"indent":0,"parameters":[]}],"moveFrequency":3,"moveRoute":{"list":[{"code":0,"parameters":[]}],"repeat":true,"skippable":false,"wait":false},"moveSpeed":3,"moveType":0,"priorityType":1,"stepAnime":true,"through":false,"trigger":0,"walkAnime":true}],"x":13,"y":6},
{"id":2,"name":"Qilin Village","note":"Qilin Village","pages":[{"conditions":{"actorId":1,"actorValid":false,"itemId":1,"itemValid":false,"selfSwitchCh":"A","selfSwitchValid":false,"switch1Id":1,"switch1Valid":false,"switch2Id":1,"switch2Valid":false,"variableId":1,"variableValid":false,"variableValue":0},"directionFix":false,"image":{"characterIndex":0,"characterName":"","direction":2,"pattern":0,"tileId":0},"list":[{"code":250,"indent":0,"parameters":[{"name":"Move1","pan":0,"pitch":100,"volume":90}]},{"code":201,"indent":0,"parameters":[0,2,8,10,2,0]},{"code":0,"indent":0,"parameters":[]}],"moveFrequency":3,"moveRoute":{"list":[{"code":0,"parameters":[]}],"repeat":true,"skippable":false,"wait":false},"moveSpeed":3,"moveType":0,"priorityType":0,"stepAnime":false,"through":false,"trigger":1,"walkAnime":true}],"x":10,"y":16},
{"id":3,"name":"Flame","note":"","pages":[{"conditions":{"actorId":1,"actorValid":false,"itemId":1,"itemValid":false,"selfSwitchCh":"A","selfSwitchValid":false,"switch1Id":1,"switch1Valid":false,"switch2Id":1,"switch2Valid":false,"variableId":1,"variableValid":false,"variableValue":0},"directionFix":true,"image":{"tileId":0,"characterName":"!Flame","direction":2,"pattern":1,"characterIndex":2},"list":[{"code":0,"indent":0,"parameters":[]}],"moveFrequency":3,"moveRoute":{"list":[{"code":0,"parameters":[]}],"repeat":true,"skippable":false,"wait":false},"moveSpeed":3,"moveType":0,"priorityType":1,"stepAnime":true,"through":false,"trigger":0,"walkAnime":true}],"x":9,"y":3},
{"id":4,"name":"Book","note":"","pages":[{"conditions":{"actorId":1,"actorValid":false,"itemId":1,"itemValid":false,"selfSwitchCh":"A","selfSwitchValid":false,"switch1Id":1,"switch1Valid":false,"switch2Id":1,"switch2Valid":false,"variableId":1,"variableValid":false,"variableValue":0},"directionFix":false,"image":{"tileId":0,"characterName":"!Flame","direction":8,"pattern":1,"characterIndex":6},"list":[{"code":101,"indent":0,"parameters":["",0,0,2]},{"code":401,"indent":0,"parameters":["\\c[1]Weapon's Hidden Ability\\c[0]"]},{"code":101,"indent":0,"parameters":["",0,0,2]},{"code":401,"indent":0,"parameters":["\\c[1]Mace\\c[0]: RescueRod"]},{"code":401,"indent":0,"parameters":["Restores Health based on User's Wisdom"]},{"code":401,"indent":0,"parameters":["(Target: AOE)"]},{"code":101,"indent":0,"parameters":["",0,0,2]},{"code":401,"indent":0,"parameters":["\\c[1]Rod\\c[0]: FrozenRod"]},{"code":401,"indent":0,"parameters":["Inflicts Ice damage based on User's Wisdom,"]},{"code":401,"indent":0,"parameters":["may Inflicts Frozen"]},{"code":401,"indent":0,"parameters":["(Target: AOE)"]},{"code":0,"indent":0,"parameters":[]}],"moveFrequency":3,"moveRoute":{"list":[{"code":16,"indent":null},{"code":17,"indent":null},{"code":18,"indent":null},{"code":19,"indent":null},{"code":0,"parameters":[]}],"repeat":true,"skippable":false,"wait":false},"moveSpeed":3,"moveType":3,"priorityType":1,"stepAnime":false,"through":false,"trigger":0,"walkAnime":false}],"x":16,"y":12},
{"id":5,"name":"Book","note":"","pages":[{"conditions":{"actorId":1,"actorValid":false,"itemId":1,"itemValid":false,"selfSwitchCh":"A","selfSwitchValid":false,"switch1Id":1,"switch1Valid":false,"switch2Id":1,"switch2Valid":false,"variableId":1,"variableValid":false,"variableValue":0},"directionFix":false,"image":{"tileId":0,"characterName":"!Flame","direction":8,"pattern":1,"characterIndex":6},"list":[{"code":101,"indent":0,"parameters":["",0,0,2]},{"code":401,"indent":0,"parameters":["\\c[1]Weapon's Hidden Ability\\c[0]"]},{"code":101,"indent":0,"parameters":["",0,0,2]},{"code":401,"indent":0,"parameters":["\\c[1]Rifle\\c[0]: PiercingShot"]},{"code":401,"indent":0,"parameters":["Inflicts Piercing [Rifle] damage based on User's Attack"]},{"code":401,"indent":0,"parameters":["(Target: AOE)"]},{"code":101,"indent":0,"parameters":["",0,0,2]},{"code":401,"indent":0,"parameters":["\\c[1]Shotgun\\c[0]: ScatterShot"]},{"code":401,"indent":0,"parameters":["Inflicts [Shotgun] damage based on User's Half Attack"]},{"code":401,"indent":0,"parameters":["(Target: 6)"]},{"code":101,"indent":0,"parameters":["",0,0,2]},{"code":401,"indent":0,"parameters":["\\c[1]BoardSword\\c[0]: BlazingSlash"]},{"code":401,"indent":0,"parameters":["Inflicts Fire damage based on User's Attack"]},{"code":401,"indent":0,"parameters":["(Target: Up to 2)"]},{"code":101,"indent":0,"parameters":["",0,0,2]},{"code":401,"indent":0,"parameters":["\\c[1]LightSaber\\c[0]: RumblingSlash"]},{"code":401,"indent":0,"parameters":["Inflicts Thunder damage based on User's (Half) Attack"]},{"code":401,"indent":0,"parameters":["(Target: Up to 4)"]},{"code":101,"indent":0,"parameters":["",0,0,2]},{"code":401,"indent":0,"parameters":["\\c[1]Qatar\\c[0]: FlurryStrike"]},{"code":401,"indent":0,"parameters":["Inflicts Metal damage based on User's Half Attack"]},{"code":401,"indent":0,"parameters":["(Target: 6)"]},{"code":101,"indent":0,"parameters":["",0,0,2]},{"code":401,"indent":0,"parameters":["\\c[1]Slicer\\c[0]: GhostlyStrike"]},{"code":401,"indent":0,"parameters":["Inflicts Critical Metal damage based on User's Attack"]},{"code":401,"indent":0,"parameters":["(Target: 2)"]},{"code":0,"indent":0,"parameters":[]}],"moveFrequency":3,"moveRoute":{"list":[{"code":16,"indent":null},{"code":17,"indent":null},{"code":18,"indent":null},{"code":19,"indent":null},{"code":0,"parameters":[]}],"repeat":true,"skippable":false,"wait":false},"moveSpeed":3,"moveType":3,"priorityType":1,"stepAnime":false,"through":false,"trigger":0,"walkAnime":false}],"x":14,"y":4},
{"id":6,"name":"Book","note":"","pages":[{"conditions":{"actorId":1,"actorValid":false,"itemId":1,"itemValid":false,"selfSwitchCh":"A","selfSwitchValid":false,"switch1Id":1,"switch1Valid":false,"switch2Id":1,"switch2Valid":false,"variableId":1,"variableValid":false,"variableValue":0},"directionFix":false,"image":{"tileId":0,"characterName":"!Flame","direction":8,"pattern":1,"characterIndex":6},"list":[{"code":101,"indent":0,"parameters":["",0,0,2]},{"code":401,"indent":0,"parameters":["What book will you read?"]},{"code":102,"indent":0,"parameters":[["Dying Condition","Magic Mastery","About Elements","About The-mancers","W.H.A. Condition"],-2,-1,2,0]},{"code":402,"indent":0,"parameters":[0,"Dying Condition"]},{"code":101,"indent":1,"parameters":["",0,0,2]},{"code":401,"indent":1,"parameters":["\\c[1]Dying Condition\\c[0]"]},{"code":401,"indent":1,"parameters":["Dying is a condition of Health below 25% of Max Health."]},{"code":401,"indent":1,"parameters":["In this condition, you will get a Dying Bonus,"]},{"code":401,"indent":1,"parameters":["where Energy will regenerate 1 to 10% of Max Energy."]},{"code":0,"indent":1,"parameters":[]},{"code":402,"indent":0,"parameters":[1,"Magic Mastery"]},{"code":101,"indent":1,"parameters":["",0,0,2]},{"code":401,"indent":1,"parameters":["\\c[1]Magic Mastery\\c[0]"]},{"code":401,"indent":1,"parameters":["Every time you use Magic,"]},{"code":401,"indent":1,"parameters":["mastery points will increase,"]},{"code":401,"indent":1,"parameters":["which will increase Magic damage."]},{"code":0,"indent":1,"parameters":[]},{"code":402,"indent":0,"parameters":[2,"About Elements"]},{"code":101,"indent":1,"parameters":["",0,0,2]},{"code":401,"indent":1,"parameters":["\\c[1]About Elements\\c[0]"]},{"code":401,"indent":1,"parameters":["\\c[18]Fire\\c[0] >< \\c[4]Ice\\c[0]            \\c[9]Water\\c[0] >< \\c[8]Thunder\\c[0]"]},{"code":401,"indent":1,"parameters":["\\c[11]Wind\\c[0] >< \\c[20]Earth\\c[0]          \\c[30]Void\\c[0] >< \\c[15]Metal\\c[0]"]},{"code":101,"indent":1,"parameters":["",0,0,2]},{"code":401,"indent":1,"parameters":["\\c[18]Fire\\c[0]: Has more Attack, but less Wisdom"]},{"code":401,"indent":1,"parameters":["\\c[4]Ice\\c[0]: Has more Wisdom, but less Attack"]},{"code":401,"indent":1,"parameters":["\\c[9]Water\\c[0]: Has more Defend, but less Reflex"]},{"code":401,"indent":1,"parameters":["\\c[8]Thunder\\c[0]: Has more Reflex, but less Defend"]},{"code":101,"indent":1,"parameters":["",0,0,2]},{"code":401,"indent":1,"parameters":["\\c[11]Wind\\c[0]: Has more Wisdom & Reflex, but less Attack & Defend"]},{"code":401,"indent":1,"parameters":["\\c[20]Earth\\c[0]: Has more Attack & Defend, but less Sanity & Reflex"]},{"code":401,"indent":1,"parameters":["\\c[30]Void\\c[0]: Has more Wisdom & Sanity, but less Attack & Defend"]},{"code":401,"indent":1,"parameters":["\\c[15]Metal\\c[0]: Has more Attack & Defend, but less Wisdom & Sanity"]},{"code":0,"indent":1,"parameters":[]},{"code":402,"indent":0,"parameters":[3,"About The-mancers"]},{"code":101,"indent":1,"parameters":["",0,0,2]},{"code":401,"indent":1,"parameters":["\\c[1]About The-mancers\\c[0]"]},{"code":101,"indent":1,"parameters":["",0,0,2]},{"code":401,"indent":1,"parameters":["\\c[1]Geomancer\\c[0]: Master of \\c[20]Earth\\c[0] and \\c[15]Metal\\c[0]"]},{"code":401,"indent":1,"parameters":["\\c[1]Pyromancer\\c[0]: Master of \\c[18]Fire\\c[0] and \\c[8]Thunder\\c[0]"]},{"code":401,"indent":1,"parameters":["\\c[1]Hydromancer\\c[0]: Master of \\c[9]Water\\c[0] and \\c[4]Ice\\c[0]"]},{"code":401,"indent":1,"parameters":["\\c[1]Aeromancer\\c[0]: Master of \\c[11]Wind\\c[0] and \\c[30]Void\\c[0]"]},{"code":0,"indent":1,"parameters":[]},{"code":402,"indent":0,"parameters":[4,"W.H.A. Condition"]},{"code":101,"indent":1,"parameters":["",0,0,2]},{"code":401,"indent":1,"parameters":["\\c[1]W.H.A. Condition\\c[0]"]},{"code":401,"indent":1,"parameters":["W.H.A. is an abbreviation for Weapon's Hidden Ability."]},{"code":101,"indent":1,"parameters":["",0,0,2]},{"code":401,"indent":1,"parameters":["There are two conditions to release a W.H.A.:"]},{"code":401,"indent":1,"parameters":["Normal condition: There is a 0% chance."]},{"code":401,"indent":1,"parameters":["Dying condition: There is a 50% chance."]},{"code":401,"indent":1,"parameters":["Each * adds 10% to the probability."]},{"code":0,"indent":1,"parameters":[]},{"code":403,"indent":0,"parameters":[6,null]},{"code":0,"indent":1,"parameters":[]},{"code":404,"indent":0,"parameters":[]},{"code":0,"indent":0,"parameters":[]}],"moveFrequency":3,"moveRoute":{"list":[{"code":16,"indent":null},{"code":17,"indent":null},{"code":18,"indent":null},{"code":19,"indent":null},{"code":0,"parameters":[]}],"repeat":true,"skippable":false,"wait":false},"moveSpeed":3,"moveType":3,"priorityType":1,"stepAnime":false,"through":false,"trigger":0,"walkAnime":false}],"x":6,"y":4}
]
}